
0.0.0	0.63.*	德國
0.64.0	0.95.*	俄羅斯
0.96.0	0.127.*	英國
0.128.0	0.159.*	蘇丹
0.160.0	0.191.*	葡萄牙
0.192.0	0.223.*	摩爾多瓦
0.224.0	1.31.*	荷蘭
1.32.0	1.63.*	德國
1.64.0	1.127.*	烏克蘭
1.128.0	1.159.*	英國
1.160.0	1.191.*	荷蘭
1.192.0	1.*.*	俄羅斯
2.0.0	2.31.*	英國
2.32.0	2.95.*	德國
2.96.0	2.127.*	波蘭
2.128.0	2.159.*	烏克蘭
2.160.0	2.191.*	愛爾蘭
2.192.0	2.223.*	土耳其
2.224.0	2.*.*	吉爾吉斯斯坦
3.0.0	3.31.*	瑞典
3.32.0	3.63.*	西班牙
3.64.0	3.95.*	德國
3.96.0	3.127.*	烏克蘭
3.128.0	3.159.*	俄羅斯
3.160.0	3.191.*	英國
3.192.0	3.223.*	德國
3.224.0	3.*.*	英國
4.0.0	4.31.*	意大利
4.32.0	4.63.*	挪威
4.64.0	4.95.*	瑞士
4.96.0	4.127.*	西班牙
4.128.0	4.159.*	捷克
4.160.0	4.191.*	德國
4.192.0	4.193.*	瑞士
4.194.0	4.194.127	荷蘭
4.194.128	4.194.*	瑞士
4.195.0	4.195.191	德國
4.195.192	4.196.*	瑞士
4.197.0	4.197.127	法國
4.197.128	4.197.191	意大利
4.197.192	4.197.*	丹麥
4.198.0	4.198.127	瑞士
4.198.128	4.198.191	英國
4.198.192	4.200.*	瑞士
4.201.0	4.201.63	德國
4.201.64	4.201.127	奧地利
4.201.128	4.201.*	瑞士
4.202.0	4.202.63	德國
4.202.64	4.202.*	瑞士
4.203.0	4.203.63	比利時
4.203.64	4.203.*	瑞士
4.204.0	4.204.63	意大利
4.204.64	4.207.63	瑞士
4.207.64	4.207.127	瑞典
4.207.128	4.207.*	瑞士
4.208.0	4.208.*	英國
4.209.0	4.209.*	瑞士
4.210.0	4.210.31	德國
4.210.32	4.210.63	奧地利
4.210.64	4.210.95	英國
4.210.96	4.210.127	德國
4.210.128	4.210.159	瑞士
4.210.160	4.210.175	英國
4.210.176	4.210.191	荷蘭
4.210.192	4.210.207	德國
4.210.208	4.210.215	英國
4.210.216	4.210.223	瑞士
4.210.224	4.210.*	英國
4.211.0	4.211.63	美國
4.211.64	4.213.*	瑞士
4.214.0	4.214.*	美國
4.215.0	4.215.*	比利時
4.216.0	4.223.*	塞浦路斯
4.224.0	5.31.*	德國
5.32.0	5.63.*	保加利亞
5.64.0	5.127.*	俄羅斯
5.128.0	5.159.*	保加利亞
5.160.0	5.191.*	俄羅斯
5.192.0	5.223.*	斯洛伐克
5.224.0	6.31.*	俄羅斯
6.32.0	6.63.*	意大利
6.64.0	6.*.*	德國
7.0.0	7.31.*	愛沙尼亞
7.32.0	7.63.*	西班牙
7.64.0	7.95.*	意大利
7.96.0	7.127.*	俄羅斯
7.128.0	7.191.*	德國
7.192.0	7.223.*	波蘭
7.224.0	7.*.*	俄羅斯
8.0.0	8.31.*	德國
8.32.0	8.63.*	烏克蘭
8.64.0	8.127.*	西班牙
8.128.0	8.159.*	德國
8.160.0	8.176.23	比利時
8.176.24	8.176.31	美國
8.176.32	8.188.*	比利時
8.189.0	8.189.127	英國
8.189.128	8.191.*	比利時
8.192.0	8.223.*	德國
8.224.0	8.*.*	俄羅斯
9.0.0	9.31.*	澤西島
9.32.0	9.63.*	德國
9.64.0	9.95.*	西班牙
9.96.0	9.127.*	英國
9.128.0	9.159.*	奧地利
9.160.0	9.191.*	德國
9.192.0	9.223.*	英國
9.224.0	9.*.*	烏克蘭
10.0.0	10.*.*	丹麥
11.0.0	11.63.*	法國
11.64.0	11.95.*	英國
11.96.0	11.127.*	捷克
11.128.0	11.159.*	俄羅斯
11.160.0	11.191.*	沙特阿拉伯
11.192.0	11.223.*	敘利亞
11.224.0	11.*.*	德國
12.0.0	12.31.*	俄羅斯
12.32.0	12.63.*	德國
12.64.0	12.95.*	俄羅斯
12.96.0	12.127.*	德國
12.128.0	12.159.*	土耳其
12.160.0	12.191.*	沙特阿拉伯
12.192.0	12.223.*	立陶宛
12.224.0	12.*.*	埃及
13.0.0	13.31.*	俄羅斯
13.32.0	13.63.*	葡萄牙
13.64.0	13.95.*	馬其頓
13.96.0	13.127.*	俄羅斯
13.128.0	13.191.*	哈薩克斯坦
13.192.0	13.223.*	英國
13.224.0	13.*.*	斯洛文尼亞
14.0.0	14.63.*	波蘭
14.64.0	14.95.*	德國
14.96.0	14.127.*	西班牙
14.128.0	14.159.*	意大利
14.160.0	14.223.*	俄羅斯
14.224.0	14.*.*	巴勒斯坦
15.0.0	15.31.*	土耳其
15.32.0	15.63.*	俄羅斯
15.64.0	15.95.*	英國
15.96.0	15.127.*	俄羅斯
15.128.0	15.159.*	烏克蘭
15.160.0	15.191.*	克羅地亞
15.192.0	15.223.*	德國
15.224.0	15.*.*	西班牙
16.0.0	16.31.*	俄羅斯
16.32.0	16.63.*	奧地利
16.64.0	16.95.*	伊朗
16.96.0	16.127.*	芬蘭
16.128.0	16.159.*	匈牙利
16.160.0	16.191.*	瑞典
16.192.0	16.223.*	俄羅斯
16.224.0	16.*.*	德國
17.0.0	17.31.*	俄羅斯
17.32.0	17.63.*	愛爾蘭
17.64.0	17.127.*	奧地利
17.128.0	17.159.*	挪威
17.160.0	17.191.*	芬蘭
17.192.0	17.223.*	意大利
17.224.0	18.31.*	德國
18.32.0	18.63.*	斯洛文尼亞
18.64.0	18.95.*	德國
18.96.0	18.127.*	瑞士
18.128.0	18.159.*	挪威
18.160.0	18.191.*	葡萄牙
18.192.0	18.223.*	德國
18.224.0	18.*.*	英國
19.0.0	19.31.*	俄羅斯
19.32.0	19.63.*	德國
19.64.0	19.95.*	英國
19.96.0	19.127.*	意大利
19.128.0	19.159.*	哈薩克斯坦
19.160.0	19.191.*	法國
19.192.0	19.*.*	荷蘭
20.0.0	20.63.*	俄羅斯
20.64.0	20.127.*	捷克
20.128.0	20.132.127	德國
20.132.128	20.132.191	盧森堡
20.132.192	20.191.*	德國
20.192.0	20.223.*	挪威
20.224.0	20.*.*	英國
21.0.0	21.31.*	俄羅斯
21.32.0	21.95.*	德國
21.96.0	21.127.*	英國
21.128.0	21.159.*	保加利亞
21.160.0	21.191.*	德國
21.192.0	21.*.*	西班牙
22.0.0	22.31.*	英國
22.32.0	22.63.*	西班牙
22.64.0	22.95.*	俄羅斯
22.96.0	22.127.*	英國
22.128.0	22.159.*	意大利
22.160.0	22.191.*	肯尼亞
22.192.0	22.223.*	烏克蘭
22.224.0	22.*.*	直布羅陀
23.0.0	23.2.*	英國
23.3.0	23.3.*	德國
23.4.0	23.63.*	英國
23.64.0	23.95.*	俄羅斯
23.96.0	23.159.*	德國
23.160.0	23.223.*	法國
23.224.0	23.*.*	英國
24.0.0	24.31.*	意大利
24.32.0	24.63.*	俄羅斯
24.64.0	24.95.*	英國
24.96.0	24.127.*	奧地利
24.128.0	24.159.*	捷克
24.160.0	24.191.*	匈牙利
24.192.0	24.223.*	盧森堡
24.224.0	24.*.*	沙特阿拉伯
25.0.0	25.31.*	瑞士
25.32.0	25.63.*	保加利亞
25.64.0	25.127.*	以色列
25.128.0	25.159.*	瑞典
25.160.0	25.191.*	意大利
25.192.0	25.192.63	荷蘭
25.192.64	25.192.*	英國
25.193.0	25.193.127	法國
25.193.128	25.223.*	荷蘭
25.224.0	25.*.*	英國
26.0.0	26.127.*	沙特阿拉伯
26.128.0	26.159.*	烏克蘭
26.160.0	26.191.*	斯洛伐克
26.192.0	26.223.*	荷蘭
26.224.0	26.*.*	俄羅斯
27.0.0	27.31.*	瑞典
27.32.0	27.63.*	法國
27.64.0	27.127.*	奧地利
27.128.0	27.159.*	德國
27.160.0	27.191.*	英國
27.192.0	27.223.*	捷克
27.224.0	27.*.*	愛沙尼亞
28.0.0	28.31.*	英國
28.32.0	28.63.*	德國
28.64.0	28.95.*	摩爾多瓦
28.96.0	28.127.*	德國
28.128.0	28.159.*	瑞士
28.160.0	28.191.*	意大利
28.192.0	28.223.*	瑞典
28.224.0	28.*.*	黎巴嫩
29.0.0	29.63.*	德國
29.64.0	29.127.*	土耳其
29.128.0	29.159.*	意大利
29.160.0	29.191.*	荷蘭
29.192.0	29.*.*	以色列
30.0.0	30.31.*	英國
30.32.0	30.63.*	黎巴嫩
30.64.0	30.95.*	斯洛文尼亞
30.96.0	30.127.*	法國
30.128.0	30.191.*	俄羅斯
30.192.0	30.223.*	冰島
30.224.0	30.*.*	英國
31.0.0	31.31.*	土耳其
31.32.0	31.63.*	西班牙
31.64.0	31.95.*	奧地利
31.96.0	31.127.*	塞浦路斯
31.128.0	31.159.*	法國
31.160.0	31.191.*	瑞典
31.192.0	31.223.*	西班牙
31.224.0	32.127.*	英國
32.128.0	32.191.*	瑞典
32.192.0	32.223.*	俄羅斯
32.224.0	32.*.*	荷蘭
33.0.0	33.31.*	俄羅斯
33.32.0	33.63.*	奧地利
33.64.0	33.95.*	波蘭
33.96.0	33.127.*	巴勒斯坦
33.128.0	33.159.*	挪威
33.160.0	33.191.*	沙特阿拉伯
33.192.0	33.223.*	伊朗
33.224.0	33.*.*	俄羅斯
34.0.0	34.31.*	約旦
34.32.0	34.63.*	俄羅斯
34.64.0	34.95.*	德國
34.96.0	34.127.*	俄羅斯
34.128.0	34.159.*	西班牙
34.160.0	34.191.*	德國
34.192.0	34.223.*	意大利
34.224.0	34.*.*	亞美尼亞
35.0.0	35.63.*	瑞士
35.64.0	35.95.*	約旦
35.96.0	35.127.*	英國
35.128.0	35.159.*	羅馬尼亞
35.160.0	35.191.*	烏克蘭
35.192.0	35.223.*	意大利
35.224.0	35.*.*	英國
36.0.0	36.31.*	保加利亞
36.32.0	36.63.*	英國
36.64.0	36.95.*	西班牙
36.96.0	36.191.*	英國
36.192.0	36.223.*	黎巴嫩
36.224.0	36.*.*	俄羅斯
37.0.0	37.31.*	瑞典
37.32.0	37.63.*	德國
37.64.0	37.95.*	歐洲和中東地區
37.96.0	37.127.*	瑞典
37.128.0	37.159.*	丹麥
37.160.0	37.191.*	德國
37.192.0	37.223.*	法國
37.224.0	37.*.*	挪威
38.0.0	38.31.*	德國
38.32.0	38.63.*	意大利
38.64.0	38.95.*	英國
38.96.0	38.127.*	俄羅斯
38.128.0	38.159.*	約旦
38.160.0	38.191.*	英國
38.192.0	38.223.*	波蘭
38.224.0	38.*.*	芬蘭
39.0.0	39.31.*	意大利
39.32.0	39.63.*	瑞典
39.64.0	39.95.*	保加利亞
39.96.0	39.127.*	波黑
39.128.0	39.159.*	法國
39.160.0	39.191.*	英國
39.192.0	39.223.*	奧地利
39.224.0	39.*.*	英國
40.0.0	40.31.*	瑞士
40.32.0	40.63.*	烏克蘭
40.64.0	40.127.*	匈牙利
40.128.0	40.159.*	黎巴嫩
40.160.0	40.191.*	德國
40.192.0	40.223.*	俄羅斯
40.224.0	40.*.*	西班牙
41.0.0	41.31.*	俄羅斯
41.32.0	41.63.*	英國
41.64.0	41.127.*	瑞士
41.128.0	41.159.*	西班牙
41.160.0	41.191.*	英國
41.192.0	41.223.*	瑞士
41.224.0	41.*.*	奧地利
42.0.0	42.31.*	英國
42.32.0	42.63.*	俄羅斯
42.64.0	42.95.*	烏克蘭
42.96.0	42.127.*	吉爾吉斯斯坦
42.128.0	42.159.*	瑞士
42.160.0	42.191.*	英國
42.192.0	42.223.*	亞美尼亞
42.224.0	42.*.*	德國
43.0.0	43.31.*	科威特
43.32.0	43.63.*	保加利亞
43.64.0	43.95.*	德國
43.96.0	43.127.*	意大利
43.128.0	43.159.*	瑞士
43.160.0	43.191.*	英國
43.192.0	43.*.*	法國
44.0.0	44.63.*	英國
44.64.0	44.95.*	俄羅斯
44.96.0	44.127.*	斯洛文尼亞
44.128.0	44.159.*	俄羅斯
44.160.0	44.223.*	德國
44.224.0	44.*.*	法國
45.0.0	45.31.*	俄羅斯
45.32.0	45.63.*	荷蘭
45.64.0	45.95.*	保加利亞
45.96.0	45.103.*	意大利
45.104.0	45.111.*	德國
45.112.0	45.127.*	丹麥
45.128.0	45.159.*	意大利
45.160.0	45.191.*	挪威
45.192.0	45.223.*	瑞士
45.224.0	46.31.*	俄羅斯
46.32.0	46.63.*	沙特阿拉伯
46.64.0	46.95.*	意大利
46.96.0	46.127.*	德國
46.128.0	46.159.*	英國
46.160.0	46.191.*	意大利
46.192.0	46.*.*	俄羅斯
47.0.0	47.31.*	捷克
47.32.0	47.63.*	意大利
47.64.0	47.95.*	英國
47.96.0	47.127.*	立陶宛
47.128.0	47.159.*	阿塞拜疆
47.160.0	47.191.*	瑞士
47.192.0	47.223.*	愛沙尼亞
47.224.0	47.*.*	法國
48.0.0	48.31.*	意大利
48.32.0	48.63.*	俄羅斯
48.64.0	48.95.*	以色列
48.96.0	48.127.*	德國
48.128.0	48.159.*	俄羅斯
48.160.0	48.191.*	意大利
48.192.0	48.*.*	俄羅斯
49.0.0	49.31.*	愛沙尼亞
49.32.0	49.63.*	波蘭
49.64.0	49.95.*	肯尼亞
49.96.0	49.127.*	俄羅斯
49.128.0	49.191.*	西班牙
49.192.0	49.*.*	英國
50.0.0	50.31.*	保加利亞
50.32.0	50.63.*	土耳其
50.64.0	50.95.*	保加利亞
50.96.0	50.127.*	塞浦路斯
50.128.0	50.159.*	芬蘭
50.160.0	50.191.*	英國
50.192.0	50.223.*	芬蘭
50.224.0	50.*.*	伊朗
51.0.0	51.31.*	德國
51.32.0	51.63.*	西班牙
51.64.0	51.127.*	匈牙利
51.128.0	51.159.*	瑞士
51.160.0	51.191.*	法國
51.192.0	51.223.*	波蘭
51.224.0	51.*.*	奧地利
52.0.0	52.31.*	荷蘭
52.32.0	52.63.*	立陶宛
52.64.0	52.127.*	意大利
52.128.0	52.159.*	布基納法索
52.160.0	52.191.*	匈牙利
52.192.0	52.223.*	奧地利
52.224.0	52.*.*	德國
53.0.0	53.15.*	比利時
53.16.0	53.31.*	荷蘭
53.32.0	53.63.*	俄羅斯
53.64.0	53.95.*	英國
53.96.0	53.127.*	瑞典
53.128.0	53.*.*	德國
54.0.0	54.31.*	芬蘭
54.32.0	54.63.*	荷蘭
54.64.0	54.95.*	丹麥
54.96.0	54.127.*	羅馬尼亞
54.128.0	54.191.*	英國
54.192.0	54.223.*	希臘
54.224.0	54.*.*	瑞士
55.0.0	55.31.*	西班牙
55.32.0	55.63.*	法羅群島
55.64.0	55.127.*	俄羅斯
55.128.0	55.191.*	葡萄牙
55.192.0	55.223.*	瑞士
55.224.0	55.*.*	斯洛伐克
56.0.0	56.31.*	保加利亞
56.32.0	56.127.*	英國
56.128.0	56.159.*	馬耳他
56.160.0	56.191.*	意大利
56.192.0	56.223.*	摩爾多瓦
56.224.0	56.*.*	盧森堡
57.0.0	57.31.*	土耳其
57.32.0	57.39.*	斯洛伐克
57.40.0	57.47.*	塞爾維亞
57.48.0	57.63.*	荷蘭
57.64.0	57.95.*	葡萄牙
57.96.0	57.191.*	俄羅斯
57.192.0	57.223.*	沙特阿拉伯
57.224.0	57.*.*	英國
58.0.0	58.31.*	土耳其
58.32.0	58.63.*	英國
58.64.0	58.95.*	德國
58.96.0	58.127.*	格魯吉亞
58.128.0	58.159.*	英國
58.160.0	58.191.*	烏克蘭
58.192.0	58.223.*	俄羅斯
58.224.0	58.*.*	英國
59.0.0	59.31.*	立陶宛
59.32.0	59.63.*	德國
59.64.0	59.95.*	英國
59.96.0	59.127.*	俄羅斯
59.128.0	59.191.*	瑞士
59.192.0	59.223.*	西班牙
59.224.0	59.*.*	波蘭
60.0.0	60.31.*	德國
60.32.0	60.63.*	瑞士
60.64.0	60.95.*	岡比亞
60.96.0	60.127.*	丹麥
60.128.0	60.159.*	德國
60.160.0	60.191.*	奧地利
60.192.0	60.*.*	德國
61.0.0	61.*.*	荷蘭
62.0.0	62.4.63	瑞士
62.4.64	62.6.63	英國
62.6.64	62.6.79	瑞士
62.6.80	62.8.159	英國
62.8.160	62.8.191	瑞士
62.8.192	62.8.207	英國
62.8.208	62.8.223	瑞士
62.8.224	62.10.31	英國
62.10.32	62.10.63	瑞士
62.10.64	62.10.119	英國
62.10.120	62.10.143	瑞士
62.10.144	62.10.207	英國
62.10.208	62.10.223	瑞士
62.10.224	62.14.31	英國
62.14.32	62.14.63	瑞士
62.14.64	62.14.183	英國
62.14.184	62.14.191	瑞士
62.14.192	62.16.47	英國
62.16.48	62.16.55	瑞士
62.16.56	62.16.167	英國
62.16.168	62.16.175	瑞士
62.16.176	62.17.191	英國
62.17.192	62.17.*	瑞士
62.18.0	62.18.*	英國
62.19.0	62.19.31	瑞士
62.19.32	62.19.*	英國
62.20.0	62.20.15	瑞士
62.20.16	62.24.15	英國
62.24.16	62.24.63	瑞士
62.24.64	62.24.95	英國
62.24.96	62.24.111	瑞士
62.24.112	62.25.143	英國
62.25.144	62.25.159	瑞士
62.25.160	62.25.175	英國
62.25.176	62.25.191	瑞士
62.25.192	62.27.*	英國
62.28.0	62.30.*	瑞士
62.31.0	62.31.*	瑞士/英國
62.32.0	62.63.*	塞爾維亞
62.64.0	62.95.*	德國
62.96.0	62.127.*	沙特阿拉伯
62.128.0	62.191.*	法國
62.192.0	62.223.*	德國
62.224.0	62.*.*	挪威
63.0.0	63.31.*	芬蘭
63.32.0	63.95.*	德國
63.96.0	63.127.*	西班牙
63.128.0	63.191.*	德國
63.192.0	63.223.*	瑞典
63.224.0	63.*.*	比利時
64.0.0	64.127.*	荷蘭
64.128.0	64.159.*	英國
64.160.0	64.191.*	西班牙
64.192.0	64.223.*	土耳其
64.224.0	65.31.*	德國
65.32.0	65.63.*	比利時
65.64.0	65.95.*	俄羅斯
65.96.0	65.127.*	馬耳他
65.128.0	65.159.*	土耳其
65.160.0	65.191.*	瑞士
65.192.0	65.*.*	捷克
66.0.0	66.31.*	德國
66.32.0	66.63.*	烏克蘭
66.64.0	66.95.*	盧森堡
66.96.0	66.127.*	意大利
66.128.0	66.159.*	德國
66.160.0	66.191.*	西班牙
66.192.0	66.223.*	芬蘭
66.224.0	66.*.*	意大利
67.0.0	67.31.*	俄羅斯
67.32.0	67.63.*	法國
67.64.0	67.95.*	捷克
67.96.0	67.127.*	英國
67.128.0	67.159.*	波蘭
67.160.0	67.191.*	荷蘭
67.192.0	67.223.*	英國
67.224.0	67.*.*	奧地利
68.0.0	68.31.*	芬蘭
68.32.0	68.63.*	土耳其
68.64.0	68.127.*	德國
68.128.0	68.159.*	以色列
68.160.0	68.191.*	烏克蘭
68.192.0	68.*.*	比利時
69.0.0	69.31.*	塞爾維亞
69.32.0	69.63.*	英國
69.64.0	69.95.*	波蘭
69.96.0	69.127.*	俄羅斯
69.128.0	69.159.*	意大利
69.160.0	69.191.*	德國
69.192.0	69.*.*	英國
70.0.0	70.31.*	丹麥
70.32.0	70.63.*	沙特阿拉伯
70.64.0	70.95.*	英國
70.96.0	70.127.*	奧地利
70.128.0	70.159.*	保加利亞
70.160.0	70.191.*	拉脫維亞
70.192.0	70.223.*	希臘
70.224.0	70.*.*	意大利
71.0.0	71.31.*	比利時
71.32.0	71.63.*	沙特阿拉伯
71.64.0	71.95.*	挪威
71.96.0	71.127.*	瑞士
71.128.0	71.191.*	捷克
71.192.0	71.223.*	德國
71.224.0	71.*.*	英國
72.0.0	72.31.*	阿曼
72.32.0	72.63.*	英國
72.64.0	72.95.*	德國
72.96.0	72.127.*	斯洛文尼亞
72.128.0	72.159.*	格魯吉亞
72.160.0	72.191.*	德國
72.192.0	72.223.*	保加利亞
72.224.0	72.*.*	荷蘭
73.0.0	73.31.*	瑞典
73.32.0	73.63.*	西班牙
73.64.0	73.95.*	亞美尼亞
73.96.0	73.127.*	俄羅斯
73.128.0	73.159.*	保加利亞
73.160.0	73.191.*	瑞典
73.192.0	74.127.*	英國
74.128.0	74.191.*	瑞士
74.192.0	74.*.*	俄羅斯
75.0.0	75.31.*	保加利亞
75.32.0	75.63.*	德國
75.64.0	75.95.*	瑞典
75.96.0	75.127.*	波蘭
75.128.0	75.159.*	俄羅斯
75.160.0	75.191.*	西班牙
75.192.0	75.*.*	俄羅斯
76.0.0	76.31.*	哈薩克斯坦
76.32.0	76.63.*	波蘭
76.64.0	76.95.*	沙特阿拉伯
76.96.0	76.127.*	以色列
76.128.0	76.159.*	德國
76.160.0	76.191.*	俄羅斯
76.192.0	76.223.*	德國
76.224.0	76.*.*	比利時
77.0.0	77.31.*	梵蒂岡
77.32.0	77.63.*	列支敦士登
77.64.0	77.95.*	意大利
77.96.0	77.127.*	波蘭
77.128.0	77.159.*	俄羅斯
77.160.0	77.191.*	德國
77.192.0	77.223.*	卡塔爾
77.224.0	77.*.*	德國
78.0.0	78.31.*	意大利
78.32.0	78.63.*	法國
78.64.0	78.95.*	英國
78.96.0	78.127.*	德國
78.128.0	78.159.*	西班牙
78.160.0	78.191.*	英國
78.192.0	78.223.*	荷蘭
78.224.0	78.*.*	愛爾蘭
79.0.0	79.63.*	德國
79.64.0	79.95.*	比利時
79.96.0	79.111.*	捷克
79.112.0	79.127.*	烏克蘭
79.128.0	79.159.*	西班牙
79.160.0	79.223.*	德國
79.224.0	79.*.*	荷蘭
80.0.0	80.31.*	伊朗
80.32.0	80.63.*	烏克蘭
80.64.0	80.95.*	捷克
80.96.0	80.127.*	瑞士
80.128.0	80.191.*	西班牙
80.192.0	80.223.*	意大利
80.224.0	80.*.*	德國
81.0.0	81.31.*	斯洛伐克
81.32.0	81.63.*	瑞典
81.64.0	81.127.*	英國
81.128.0	81.*.*	西班牙
82.0.0	82.31.*	英國
82.32.0	82.63.*	德國
82.64.0	82.127.*	英國
82.128.0	82.159.*	法國
82.160.0	82.191.*	德國
82.192.0	82.223.*	烏克蘭
82.224.0	82.*.*	德國
83.0.0	83.31.*	俄羅斯
83.32.0	83.63.*	德國
83.64.0	83.95.*	荷蘭
83.96.0	83.127.*	芬蘭
83.128.0	83.191.*	法國
83.192.0	84.31.*	荷蘭
84.32.0	84.63.*	意大利
84.64.0	84.127.*	英國
84.128.0	84.159.*	荷蘭
84.160.0	84.191.*	英國
84.192.0	84.*.*	德國
85.0.0	85.31.*	英國
85.32.0	85.63.*	西班牙
85.64.0	85.95.*	瑞典
85.96.0	85.127.*	波蘭
85.128.0	85.159.*	法國
85.160.0	85.191.*	斯洛文尼亞
85.192.0	85.223.*	加納
85.224.0	85.*.*	英國
86.0.0	86.31.*	芬蘭
86.32.0	86.63.*	德國
86.64.0	86.95.*	伊朗
86.96.0	86.127.*	烏克蘭
86.128.0	86.223.*	德國
86.224.0	86.*.*	烏克蘭
87.0.0	87.31.*	波蘭
87.32.0	87.63.*	德國
87.64.0	87.95.*	英國
87.96.0	87.127.*	比利時
87.128.0	87.159.*	德國
87.160.0	87.191.*	烏克蘭
87.192.0	87.223.*	西班牙
87.224.0	87.*.*	波蘭
88.0.0	88.31.*	奧地利
88.32.0	88.63.*	英國
88.64.0	88.95.*	丹麥
88.96.0	88.127.*	烏干達
88.128.0	88.159.*	德國
88.160.0	88.191.*	奧地利
88.192.0	88.223.*	德國
88.224.0	88.*.*	比利時
89.0.0	89.31.*	西班牙
89.32.0	89.63.*	挪威
89.64.0	89.95.*	英國
89.96.0	89.159.*	德國
89.160.0	89.191.*	奧地利
89.192.0	89.223.*	德國
89.224.0	89.*.*	斯洛伐克
90.0.0	90.31.*	意大利
90.32.0	90.63.*	烏克蘭
90.64.0	90.95.*	芬蘭
90.96.0	90.127.*	烏克蘭
90.128.0	90.159.*	德國
90.160.0	90.191.*	烏克蘭
90.192.0	90.223.*	瑞士
90.224.0	90.*.*	捷克
91.0.0	91.31.*	波蘭
91.32.0	91.95.*	意大利
91.96.0	91.127.*	克羅地亞
91.128.0	91.159.*	瑞典
91.160.0	91.191.*	保加利亞
91.192.0	91.223.*	俄羅斯
91.224.0	91.*.*	德國
92.0.0	92.31.*	匈牙利
92.32.0	92.63.*	西班牙
92.64.0	92.95.*	荷蘭
92.96.0	92.191.*	俄羅斯
92.192.0	92.223.*	克羅地亞
92.224.0	92.*.*	烏克蘭
93.0.0	93.31.*	德國
93.32.0	93.63.*	丹麥
93.64.0	93.95.*	英國
93.96.0	93.127.*	拉脫維亞
93.128.0	93.159.*	羅馬尼亞
93.160.0	93.223.*	沙特阿拉伯
93.224.0	93.*.*	斯洛文尼亞
94.0.0	94.31.*	俄羅斯
94.32.0	94.63.*	瑞士
94.64.0	94.95.*	芬蘭
94.96.0	94.127.*	俄羅斯
94.128.0	94.159.*	意大利
94.160.0	94.223.*	法國
94.224.0	94.*.*	德國
95.0.0	95.31.*	奧地利
95.32.0	95.63.*	德國
95.64.0	95.95.*	法國
95.96.0	95.127.*	德國
95.128.0	95.159.*	伊朗
95.160.0	95.191.*	保加利亞
95.192.0	95.223.*	西班牙
95.224.0	95.*.*	英國
96.0.0	96.31.*	加納
96.32.0	96.63.*	匈牙利
96.64.0	96.95.*	瑞典
96.96.0	96.127.*	俄羅斯
96.128.0	96.159.*	德國
96.160.0	96.191.*	捷克
96.192.0	96.223.*	俄羅斯
96.224.0	96.*.*	德國
97.0.0	97.31.*	吉爾吉斯斯坦
97.32.0	97.63.*	意大利
97.64.0	97.95.*	英國
97.96.0	97.127.*	德國
97.128.0	97.159.*	丹麥
97.160.0	97.191.*	西班牙
97.192.0	97.*.*	丹麥
98.0.0	98.31.*	土耳其
98.32.0	98.63.*	瑞士
98.64.0	98.127.*	丹麥
98.128.0	98.159.*	黎巴嫩
98.160.0	98.191.*	白俄羅斯
98.192.0	98.*.*	土耳其
99.0.0	99.127.*	法國
99.128.0	99.223.*	德國
99.224.0	99.*.*	丹麥
100.0.0	100.31.*	英國
100.32.0	100.63.*	德國
100.64.0	100.95.*	尼日利亞
100.96.0	100.127.*	英國
100.128.0	100.159.*	俄羅斯
100.160.0	100.191.*	比利時
100.192.0	100.223.*	沙特阿拉伯
100.224.0	100.*.*	英國
101.0.0	101.31.*	瑞士
101.32.0	101.63.*	德國
101.64.0	101.95.*	西班牙
101.96.0	101.127.*	土耳其
101.128.0	101.191.*	斯洛文尼亞
101.192.0	101.223.*	德國
101.224.0	101.*.*	黎巴嫩
102.0.0	102.31.*	沙特阿拉伯
102.32.0	102.95.*	意大利
102.96.0	102.127.*	英國
102.128.0	102.159.*	塞爾維亞
102.160.0	102.191.*	德國
102.192.0	102.223.*	英國
102.224.0	102.*.*	德國
103.0.0	103.31.*	法國
103.32.0	103.63.*	德國
103.64.0	103.95.*	瑞士
103.96.0	103.127.*	俄羅斯
103.128.0	103.159.*	斯洛文尼亞
103.160.0	103.191.*	埃及
103.192.0	103.223.*	意大利
103.224.0	103.*.*	英國
104.0.0	104.63.*	意大利
104.64.0	104.95.*	俄羅斯
104.96.0	104.127.*	保加利亞
104.128.0	104.159.*	英國
104.160.0	104.191.*	西班牙
104.192.0	104.*.*	荷蘭
105.0.0	105.127.*	瑞典
105.128.0	105.159.*	比利時
105.160.0	105.191.*	英國
105.192.0	105.223.*	德國
105.224.0	105.*.*	匈牙利
106.0.0	106.31.*	波蘭
106.32.0	106.63.*	俄羅斯
106.64.0	106.95.*	巴勒斯坦
106.96.0	106.127.*	英國
106.128.0	106.191.*	波蘭
106.192.0	106.*.*	西班牙
107.0.0	107.31.*	希臘
107.32.0	107.63.*	瑞典
107.64.0	107.95.*	法國
107.96.0	107.127.*	沙特阿拉伯
107.128.0	107.159.*	瑞典
107.160.0	107.191.*	德國
107.192.0	107.*.*	俄羅斯
108.0.0	108.31.*	西班牙
108.32.0	108.63.*	奧地利
108.64.0	108.95.*	英國
108.96.0	108.127.*	俄羅斯
108.128.0	108.159.*	土耳其
108.160.0	108.191.*	德國
108.192.0	108.*.*	匈牙利
109.0.0	109.31.*	俄羅斯
109.32.0	109.63.*	烏克蘭
109.64.0	109.95.*	瑞士
109.96.0	109.127.*	土耳其
109.128.0	109.159.*	波蘭
109.160.0	109.191.*	意大利
109.192.0	109.223.*	俄羅斯
109.224.0	109.*.*	土耳其
110.0.0	110.63.*	意大利
110.64.0	110.95.*	馬其頓
110.96.0	110.127.*	德國
110.128.0	110.159.*	烏克蘭
110.160.0	110.191.*	英國
110.192.0	110.*.*	德國
111.0.0	111.31.*	捷克
111.32.0	111.63.*	英國
111.64.0	111.95.*	俄羅斯
111.96.0	111.127.*	西班牙
111.128.0	111.191.*	英國
111.192.0	111.223.*	烏克蘭
111.224.0	111.*.*	德國
112.0.0	112.63.*	瑞典
112.64.0	112.95.*	意大利
112.96.0	112.127.*	吉爾吉斯斯坦
112.128.0	112.159.*	丹麥
112.160.0	112.191.*	瑞典
112.192.0	112.*.*	德國
113.0.0	113.31.*	英國
113.32.0	113.63.*	烏克蘭
113.64.0	113.95.*	比利時
113.96.0	113.127.*	俄羅斯
113.128.0	113.159.*	英國
113.160.0	113.191.*	葡萄牙
113.192.0	113.223.*	英國
113.224.0	114.31.*	俄羅斯
114.32.0	114.95.*	德國
114.96.0	114.127.*	荷蘭
114.128.0	114.*.*	德國
115.0.0	115.31.*	土耳其
115.32.0	115.63.*	英國
115.64.0	115.95.*	意大利
115.96.0	115.127.*	西班牙
115.128.0	115.191.*	英國
115.192.0	115.223.*	荷蘭
115.224.0	115.*.*	烏克蘭
116.0.0	116.31.*	德國
116.32.0	116.63.*	芬蘭
116.64.0	116.95.*	瑞典
116.96.0	116.127.*	俄羅斯
116.128.0	116.159.*	保加利亞
116.160.0	116.191.*	以色列
116.192.0	116.223.*	沙特阿拉伯
116.224.0	116.*.*	哈薩克斯坦
117.0.0	117.31.*	立陶宛
117.32.0	117.63.*	保加利亞
117.64.0	117.95.*	德國
117.96.0	117.127.*	瑞士
117.128.0	117.159.*	以色列
117.160.0	117.191.*	盧森堡
117.192.0	117.223.*	瑞士
117.224.0	117.*.*	英國
118.0.0	118.31.*	約旦
118.32.0	118.63.*	俄羅斯
118.64.0	118.95.*	斯洛文尼亞
118.96.0	118.159.*	沙特阿拉伯
118.160.0	118.223.*	德國
118.224.0	119.31.*	英國
119.32.0	119.63.*	俄羅斯
119.64.0	119.95.*	沙特阿拉伯
119.96.0	119.127.*	俄羅斯
119.128.0	119.159.*	瑞典
119.160.0	119.*.*	俄羅斯
120.0.0	120.31.*	馬其頓
120.32.0	120.63.*	瑞士
120.64.0	120.127.*	荷蘭
120.128.0	120.159.*	愛爾蘭
120.160.0	120.191.*	俄羅斯
120.192.0	120.223.*	伊朗
120.224.0	120.*.*	直布羅陀
121.0.0	121.63.*	英國
121.64.0	121.95.*	意大利
121.96.0	121.127.*	荷蘭
121.128.0	121.159.*	英國
121.160.0	121.191.*	法國
121.192.0	121.223.*	英國
121.224.0	121.*.*	西班牙
122.0.0	122.31.*	俄羅斯
122.32.0	122.63.*	德國
122.64.0	122.95.*	立陶宛
122.96.0	122.127.*	西班牙
122.128.0	122.159.*	德國
122.160.0	122.191.*	保加利亞
122.192.0	122.223.*	波蘭
122.224.0	122.*.*	埃及
123.0.0	123.31.*	比利時
123.32.0	123.63.*	德國
123.64.0	123.95.*	意大利
123.96.0	123.127.*	德國
123.128.0	123.191.*	荷蘭
123.192.0	123.*.*	英國
124.0.0	124.31.*	俄羅斯
124.32.0	124.63.*	德國
124.64.0	124.95.*	保加利亞
124.96.0	124.127.*	俄羅斯
124.128.0	124.159.*	奧地利
124.160.0	124.191.*	塞爾維亞
124.192.0	124.*.*	英國
125.0.0	125.31.*	土耳其
125.32.0	125.63.*	德國
125.64.0	125.95.*	英國
125.96.0	125.127.*	德國
125.128.0	125.159.*	荷蘭
125.160.0	125.*.*	挪威
126.0.0	126.31.*	波蘭
126.32.0	126.63.*	愛爾蘭
126.64.0	126.95.*	奧地利
126.96.0	126.127.*	伊拉克
126.128.0	126.159.*	英國
126.160.0	126.191.*	瑞士
126.192.0	126.223.*	德國
126.224.0	126.*.*	冰島
127.0.0	127.31.*	英國
127.32.0	127.63.*	德國
127.64.0	127.95.*	波蘭
127.96.0	127.127.*	土耳其
127.128.0	127.*.*	荷蘭
128.0.0	128.*.*	西班牙
129.0.0	129.63.*	法國
129.64.0	129.95.*	愛爾蘭
129.96.0	129.127.*	俄羅斯
129.128.0	129.*.*	荷蘭
130.0.0	130.*.*	丹麥
131.0.0	131.*.*	意大利
132.0.0	133.127.*	英國
133.128.0	133.*.*	土耳其
134.0.0	135.*.*	英國
136.0.0	136.*.*	荷蘭
137.0.0	137.*.*	英國
138.0.0	138.*.*	沙特阿拉伯
139.0.0	140.*.*	英國
141.0.0	141.*.*	意大利
142.0.0	142.63.*	荷蘭
142.64.0	142.127.*	拉脫維亞
142.128.0	142.*.*	西班牙
143.0.0	143.*.*	以色列
144.0.0	144.*.*	德國
145.0.0	145.*.*	西班牙
146.0.0	146.63.*	芬蘭
146.64.0	146.127.*	羅馬尼亞
146.128.0	146.*.*	土耳其
147.0.0	147.127.*	瑞士
147.128.0	147.*.*	愛爾蘭
148.0.0	148.*.*	英國
149.0.0	149.63.*	德國
149.64.0	149.*.*	芬蘭
150.0.0	150.*.*	以色列
151.0.0	152.31.*	瑞典
152.32.0	152.63.*	俄羅斯
152.64.0	152.127.*	希臘
152.128.0	152.*.*	奧地利
153.0.0	153.76.*	荷蘭
153.77.0	153.77.*	美國
153.78.0	153.*.*	荷蘭
154.0.0	154.127.*	土耳其
154.128.0	154.*.*	哈薩克斯坦
155.0.0	155.*.*	法國
156.0.0	156.*.*	土耳其
157.0.0	157.*.*	法國
158.0.0	158.81.*	英國
158.82.0	158.82.*	西班牙
158.83.0	158.127.*	英國
158.128.0	158.159.*	捷克
158.160.0	158.175.*	俄羅斯
158.176.0	158.191.*	馬其頓
158.192.0	159.191.*	英國
159.192.0	159.207.*	荷蘭
159.208.0	159.*.*	歐洲
160.0.0	160.*.*	波蘭
161.0.0	161.127.*	英國
161.128.0	161.*.*	瑞士
162.0.0	162.63.*	英國
162.64.0	162.127.*	意大利
162.128.0	162.159.*	沙特阿拉伯
162.160.0	162.191.*	瑞典
162.192.0	162.*.*	英國
163.0.0	163.*.*	西班牙
164.0.0	164.*.*	俄羅斯
165.0.0	165.31.*	奧地利
165.32.0	165.63.*	意大利
165.64.0	165.*.*	荷蘭
166.0.0	166.63.*	比利時
166.64.0	166.95.*	西班牙
166.96.0	166.127.*	奧地利
166.128.0	166.*.*	西班牙
167.0.0	167.*.*	英國
168.0.0	168.*.*	德國
169.0.0	169.63.*	英國
169.64.0	169.127.*	挪威
169.128.0	170.*.*	西班牙
171.0.0	171.*.*	意大利
172.0.0	172.*.*	德國
173.0.0	173.*.*	英國
174.0.0	175.*.*	土耳其
176.0.0	176.*.*	俄羅斯
177.0.0	177.*.*	意大利
178.0.0	178.31.*	烏克蘭
178.32.0	178.159.*	荷蘭
178.160.0	178.191.*	丹麥
178.192.0	178.223.*	荷蘭
178.224.0	178.*.*	塞爾維亞
179.0.0	179.*.*	以色列
180.0.0	180.127.*	法國
180.128.0	180.*.*	波蘭
181.0.0	181.*.*	瑞典
182.0.0	182.127.*	波蘭
182.128.0	182.191.*	荷蘭
182.192.0	182.*.*	芬蘭
183.0.0	183.127.*	奧地利
183.128.0	183.159.*	英國
183.160.0	183.191.*	意大利
183.192.0	183.*.*	西班牙
184.0.0	185.*.*	德國
186.0.0	186.*.*	奧地利
187.0.0	187.127.*	荷蘭
187.128.0	187.*.*	英國
188.0.0	188.127.*	俄羅斯
188.128.0	188.*.*	英國
189.0.0	189.127.*	荷蘭
189.128.0	189.*.*	意大利
190.0.0	190.*.*	比利時
191.0.0	191.*.*	波蘭
192.0.0	193.*.*	俄羅斯
194.0.0	195.*.*	法國
196.0.0	196.*.*	英國
197.0.0	197.127.*	斯洛伐克
197.128.0	197.191.*	奧地利
197.192.0	198.*.*	法國
199.0.0	199.127.*	以色列
199.128.0	199.*.*	歐洲
200.0.0	200.*.*	塞爾維亞和黑山
201.0.0	202.*.*	德國
203.0.0	203.31.*	荷蘭
203.32.0	203.63.*	瑞士
203.64.0	203.127.*	英國
203.128.0	203.*.*	波蘭
204.0.0	204.127.*	德國
204.128.0	204.*.*	荷蘭
205.0.0	205.*.*	希臘
206.0.0	206.*.*	荷蘭
207.0.0	207.*.*	英國
208.0.0	208.*.*	法國
209.0.0	209.*.*	瑞典
210.0.0	210.*.*	意大利
211.0.0	211.35.*	英國
211.36.0	211.39.*	德國
211.40.0	211.51.*	英國
211.52.0	211.52.*	法國
211.53.0	211.63.*	英國
211.64.0	211.75.*	德國
211.76.0	211.78.*	英國
211.79.0	211.94.*	德國
211.95.0	211.127.*	英國
211.128.0	211.*.*	德國
212.0.0	212.*.*	英國
213.0.0	213.*.*	芬蘭
214.0.0	214.*.*	瑞典
215.0.0	215.127.*	瑞士
215.128.0	215.*.*	沙特阿拉伯
216.0.0	216.*.*	意大利
217.0.0	217.127.*	摩洛哥
217.128.0	217.*.*	瑞典
218.0.0	218.*.*	德國
219.0.0	219.*.*	英國
220.0.0	220.*.*	俄羅斯
221.0.0	221.127.*	英國
221.128.0	221.*.*	德國
222.0.0	222.*.*	英國
223.0.0	224.127.*	德國
224.128.0	224.*.*	比利時
225.0.0	225.127.*	英國
225.128.0	225.*.*	西班牙
226.0.0	226.*.*	芬蘭
227.0.0	227.*.*	德國
228.0.0	229.*.*	英國
230.0.0	231.*.*	西班牙
232.0.0	232.15.*	俄羅斯
232.16.0	232.23.*	斯洛伐克
232.24.0	232.31.*	奧地利
232.32.0	232.127.*	俄羅斯
232.128.0	232.*.*	瑞士
233.0.0	233.63.*	比利時
233.64.0	233.127.*	俄羅斯
233.128.0	233.*.*	保加利亞
234.0.0	234.*.*	法國
235.0.0	235.127.*	以色列
235.128.0	235.*.*	斯洛文尼亞
236.0.0	236.*.*	奧地利
237.0.0	237.*.*	丹麥
238.0.0	238.*.*	荷蘭
239.0.0	239.127.*	意大利
239.128.0	239.*.*	比利時
240.0.0	240.*.*	英國
241.0.0	241.31.*	吉爾吉斯斯坦
241.32.0	241.63.*	荷蘭
241.64.0	241.127.*	奧地利
241.128.0	241.*.*	英國
242.0.0	242.*.*	丹麥
243.0.0	243.*.*	瑞士
244.0.0	244.*.*	波蘭
245.0.0	245.*.*	意大利
246.0.0	246.*.*	芬蘭
247.0.0	247.*.*	瑞典
248.0.0	248.127.*	俄羅斯
248.128.0	248.*.*	英國
249.0.0	249.*.*	瑞士
250.0.0	250.*.*	英國
251.0.0	251.127.*	希臘
251.128.0	251.*.*	挪威
252.0.0	253.*.*	土耳其
254.0.0	254.*.*	瑞士
*.0.0	*.*.*	德國
