
0.0.0	0.*.*	西班牙
1.0.0	2.*.*	英國
3.0.0	3.*.*	瑞士
4.0.0	4.*.*	西班牙
5.0.0	5.15.*	波蘭
5.16.0	5.31.*	俄羅斯
5.32.0	5.39.*	丹麥
5.40.0	5.47.*	波蘭
5.48.0	5.55.*	俄羅斯
5.56.0	5.63.*	克羅地亞
5.64.0	5.71.*	荷蘭
5.72.0	5.87.*	俄羅斯
5.88.0	5.95.*	英國
5.96.0	5.103.*	俄羅斯
5.104.0	5.111.*	捷克
5.112.0	5.119.*	斯洛文尼亞
5.120.0	5.127.*	捷克
5.128.0	5.135.*	俄羅斯
5.136.0	5.151.*	波蘭
5.152.0	5.159.*	瑞士
5.160.0	5.167.*	俄羅斯
5.168.0	5.175.*	沙特阿拉伯
5.176.0	5.183.*	英國
5.184.0	5.191.*	俄羅斯
5.192.0	5.199.*	烏克蘭
5.200.0	5.215.*	波蘭
5.216.0	5.223.*	俄羅斯
5.224.0	5.247.*	捷克
5.248.0	5.*.*	波蘭
6.0.0	6.191.*	巴勒斯坦
6.192.0	7.*.*	塞浦路斯
8.0.0	8.*.*	以色列
9.0.0	9.127.*	德國
9.128.0	9.*.*	西班牙
10.0.0	10.*.*	荷蘭
11.0.0	11.*.*	法國
12.0.0	12.*.*	英國
13.0.0	13.*.*	葡萄牙
14.0.0	14.*.*	土耳其
15.0.0	15.*.*	瑞典
16.0.0	16.31.*	法國
16.32.0	16.63.*	保加利亞
16.64.0	16.127.*	匈牙利
16.128.0	16.*.*	希臘
17.0.0	17.127.*	荷蘭
17.128.0	17.*.*	波蘭
18.0.0	18.*.*	英國
19.0.0	19.127.*	捷克
19.128.0	19.*.*	英國
20.0.0	20.*.*	德國
21.0.0	21.63.*	俄羅斯
21.64.0	21.127.*	瑞典
21.128.0	21.191.*	意大利
21.192.0	21.*.*	拉脫維亞
22.0.0	22.*.*	葡萄牙
23.0.0	23.*.*	德國
24.0.0	24.*.*	俄羅斯
25.0.0	25.*.*	波蘭
26.0.0	26.*.*	意大利
27.0.0	27.127.*	俄羅斯
27.128.0	27.*.*	英國
28.0.0	28.*.*	芬蘭
29.0.0	29.*.*	捷克
30.0.0	30.127.*	葡萄牙
30.128.0	30.191.*	法國
30.192.0	30.*.*	德國
31.0.0	31.8.*	比利時
31.9.0	31.10.*	西班牙
31.11.0	31.*.*	比利時
32.0.0	32.*.*	丹麥
33.0.0	33.127.*	奧地利
33.128.0	33.*.*	俄羅斯
34.0.0	34.191.*	荷蘭
34.192.0	34.223.*	科威特
34.224.0	34.*.*	荷蘭
35.0.0	35.127.*	英國
35.128.0	35.*.*	愛沙尼亞
36.0.0	36.*.*	法國
37.0.0	37.*.*	西班牙
38.0.0	38.11.63	英國
38.11.64	38.11.79	奧地利
38.11.80	38.17.87	英國
38.17.88	38.17.95	法國
38.17.96	38.72.191	英國
38.72.192	38.72.*	意大利
38.73.0	38.79.175	英國
38.79.176	38.79.191	荷蘭
38.79.192	38.88.127	英國
38.88.128	38.88.191	美國
38.88.192	38.148.63	英國
38.148.64	38.148.127	法國
38.148.128	38.153.135	英國
38.153.136	38.153.151	法國
38.153.152	38.221.127	英國
38.221.128	38.223.*	美國
38.224.0	39.127.*	英國
39.128.0	39.*.*	德國
40.0.0	41.127.*	英國
41.128.0	41.*.*	法國
42.0.0	42.*.*	阿聯酋
43.0.0	43.*.*	土耳其
44.0.0	44.*.*	法國
45.0.0	45.*.*	意大利
46.0.0	46.161.*	荷蘭
46.162.0	46.162.*	比利時
46.163.0	46.163.*	法國
46.164.0	46.165.*	荷蘭
46.166.0	46.166.*	匈牙利
46.167.0	46.169.*	荷蘭
46.170.0	46.170.*	羅馬尼亞
46.171.0	46.171.*	荷蘭
46.172.0	46.172.*	捷克
46.173.0	46.173.*	奧地利
46.174.0	46.174.*	英國
46.175.0	46.175.*	荷蘭
46.176.0	46.176.*	瑞典
46.177.0	46.177.*	挪威
46.178.0	46.178.*	波蘭
46.179.0	46.179.*	德國
46.180.0	46.225.*	荷蘭
46.226.0	46.227.*	奧地利
46.228.0	46.229.*	瑞典
46.230.0	46.230.*	英國
46.231.0	46.236.*	荷蘭
46.237.0	46.237.*	英國
46.238.0	46.*.*	荷蘭
47.0.0	47.*.*	奧地利
48.0.0	48.*.*	英國
49.0.0	49.*.*	比利時
50.0.0	50.*.*	瑞典
51.0.0	51.*.*	荷蘭
52.0.0	52.127.*	挪威
52.128.0	52.*.*	英國
53.0.0	53.*.*	荷蘭
54.0.0	54.*.*	德國
55.0.0	55.63.*	法國
55.64.0	55.127.*	埃塞俄比亞
55.128.0	55.*.*	瑞士
56.0.0	56.*.*	法國
57.0.0	57.*.*	以色列
58.0.0	58.*.*	葡萄牙
59.0.0	59.*.*	俄羅斯
60.0.0	60.*.*	西班牙
61.0.0	61.*.*	英國
62.0.0	62.0.63	歐洲
62.0.64	62.0.127	德國
62.0.128	62.0.*	英國
62.1.0	62.1.*	德國
62.2.0	62.3.127	瑞士
62.3.128	62.3.*	歐洲
62.4.0	62.8.95	德國
62.8.96	62.8.127	歐洲
62.8.128	62.8.*	挪威
62.9.0	62.9.*	匈牙利
62.10.0	62.10.*	芬蘭
62.11.0	62.15.*	英國
62.16.0	62.31.*	歐洲
62.32.0	62.32.15	英國
62.32.16	62.32.31	荷蘭
62.32.32	62.32.127	英國
62.32.128	62.32.191	比利時
62.32.192	62.32.*	奧地利
62.33.0	62.33.*	歐洲
62.34.0	62.40.191	英國
62.40.192	62.40.223	土耳其
62.40.224	62.40.*	歐洲
62.41.0	62.42.159	英國
62.42.160	62.42.191	歐洲
62.42.192	62.42.223	斯洛伐克
62.42.224	62.42.*	歐洲
62.43.0	62.46.127	英國
62.46.128	62.46.*	德國
62.47.0	62.48.231	英國
62.48.232	62.48.239	歐洲
62.48.240	62.52.191	英國
62.52.192	62.53.*	歐洲
62.54.0	62.63.*	英國
62.64.0	62.65.*	法國
62.66.0	62.67.*	瑞士
62.68.0	62.71.*	法國
62.72.0	62.79.*	瑞士
62.80.0	62.91.*	歐洲
62.92.0	62.92.167	捷克
62.92.168	62.95.*	歐洲
62.96.0	62.99.175	法國
62.99.176	62.99.191	歐洲
62.99.192	62.99.*	法國
62.100.0	62.103.*	德國
62.104.0	62.108.*	英國
62.109.0	62.109.*	比利時
62.110.0	62.111.*	英國
62.112.0	62.112.31	法國
62.112.32	62.112.63	歐洲
62.112.64	62.112.127	法國
62.112.128	62.127.*	歐洲
62.128.0	62.128.223	荷蘭
62.128.224	62.128.239	英國
62.128.240	62.137.191	荷蘭
62.137.192	62.137.*	斯洛伐克
62.138.0	62.143.*	荷蘭
62.144.0	62.159.*	歐洲
62.160.0	62.165.127	意大利
62.165.128	62.167.*	歐洲
62.168.0	62.175.*	意大利
62.176.0	62.176.127	奧地利
62.176.128	62.176.*	歐洲
62.177.0	62.177.111	奧地利
62.177.112	62.177.*	歐洲
62.178.0	62.179.*	奧地利
62.180.0	62.183.*	歐洲
62.184.0	62.191.*	英國
62.192.0	62.193.63	希臘
62.193.64	62.194.*	歐洲
62.195.0	62.196.175	比利時
62.196.176	62.196.191	歐洲
62.196.192	62.199.*	比利時
62.200.0	62.207.*	歐洲
62.208.0	62.214.159	瑞典
62.214.160	62.215.*	歐洲
62.216.0	62.216.55	西班牙
62.216.56	62.216.63	歐洲
62.216.64	62.216.79	西班牙
62.216.80	62.216.*	歐洲
62.217.0	62.217.31	比利時
62.217.32	62.217.63	歐洲
62.217.64	62.217.127	盧森堡
62.217.128	62.223.*	歐洲
62.224.0	62.224.159	波蘭
62.224.160	62.228.31	歐洲
62.228.32	62.228.63	愛爾蘭
62.228.64	62.229.*	歐洲
62.230.0	62.231.7	匈牙利
62.231.8	62.231.127	歐洲
62.231.128	62.231.*	匈牙利
62.232.0	62.236.39	比利時
62.236.40	62.236.47	歐洲
62.236.48	62.239.*	比利時
62.240.0	62.241.*	南非
62.242.0	62.247.*	德國
62.248.0	62.*.*	荷蘭
63.0.0	63.*.*	葡萄牙
64.0.0	67.*.*	瑞典
68.0.0	71.*.*	德國
72.0.0	72.*.*	英國
73.0.0	73.31.*	波蘭
73.32.0	73.63.*	西班牙
73.64.0	73.127.*	德國
73.128.0	73.*.*	荷蘭
74.0.0	74.*.*	土耳其
75.0.0	75.*.*	荷蘭
76.0.0	77.*.*	波蘭
78.0.0	78.*.*	英國
79.0.0	79.31.*	俄羅斯
79.32.0	79.63.*	愛爾蘭
79.64.0	79.127.*	俄羅斯
79.128.0	80.127.*	瑞典
80.128.0	80.*.*	俄羅斯
81.0.0	81.127.*	英國
81.128.0	81.*.*	斯洛伐克
82.0.0	82.*.*	意大利
83.0.0	83.63.*	德國
83.64.0	83.127.*	英國
83.128.0	83.*.*	丹麥
84.0.0	84.*.*	荷蘭
85.0.0	85.*.*	俄羅斯
86.0.0	86.*.*	英國
87.0.0	88.127.*	俄羅斯
88.128.0	89.*.*	瑞典
90.0.0	90.127.*	奧地利
90.128.0	91.63.*	法國
91.64.0	91.127.*	波黑
91.128.0	91.*.*	保加利亞
92.0.0	92.127.*	意大利
92.128.0	92.*.*	波蘭
93.0.0	93.*.*	荷蘭
94.0.0	94.63.*	西班牙
94.64.0	94.127.*	奧地利
94.128.0	94.*.*	愛爾蘭
95.0.0	95.*.*	德國
96.0.0	99.*.*	西班牙
100.0.0	103.*.*	瑞典
104.0.0	107.*.*	英國
108.0.0	108.7.*	俄羅斯
108.8.0	108.15.*	波蘭
108.16.0	108.23.*	俄羅斯
108.24.0	108.31.*	荷蘭
108.32.0	108.39.*	俄羅斯
108.40.0	108.47.*	捷克
108.48.0	108.55.*	俄羅斯
108.56.0	108.63.*	波蘭
108.64.0	108.71.*	法國
108.72.0	108.79.*	烏克蘭
108.80.0	108.87.*	波蘭
108.88.0	108.95.*	奧地利
108.96.0	108.103.*	瑞典
108.104.0	108.111.*	荷蘭
108.112.0	108.119.*	波蘭
108.120.0	108.127.*	斯洛伐克
108.128.0	108.151.*	俄羅斯
108.152.0	108.159.*	波蘭
108.160.0	108.167.*	捷克
108.168.0	108.175.*	俄羅斯
108.176.0	108.183.*	烏克蘭
108.184.0	108.223.*	俄羅斯
108.224.0	108.231.*	波蘭
108.232.0	108.239.*	歐洲
108.240.0	108.247.*	保加利亞
108.248.0	109.31.*	俄羅斯
109.32.0	109.47.*	波蘭
109.48.0	109.63.*	歐洲和中東地區
109.64.0	109.79.*	俄羅斯
109.80.0	109.95.*	烏克蘭
109.96.0	109.111.*	俄羅斯
109.112.0	109.127.*	荷蘭
109.128.0	109.143.*	烏克蘭
109.144.0	109.159.*	捷克
109.160.0	109.191.*	羅馬尼亞
109.192.0	109.207.*	捷克
109.208.0	109.223.*	烏克蘭
109.224.0	109.239.*	捷克
109.240.0	109.*.*	英國
110.0.0	110.31.*	捷克
110.32.0	110.63.*	俄羅斯
110.64.0	110.95.*	拉脫維亞
110.96.0	110.191.*	烏克蘭
110.192.0	110.223.*	俄羅斯
110.224.0	110.*.*	捷克
111.0.0	111.63.*	法國
111.64.0	111.*.*	烏克蘭
112.0.0	115.*.*	瑞典
116.0.0	116.1.*	歐洲
116.2.0	116.2.191	瑞典
116.2.192	116.3.31	挪威
116.3.32	116.3.127	丹麥
116.3.128	116.4.159	意大利
116.4.160	116.4.*	愛爾蘭
116.5.0	116.5.7	西班牙
116.5.8	116.39.*	歐洲
116.40.0	116.47.*	芬蘭
116.48.0	116.63.*	俄羅斯
116.64.0	116.185.*	歐洲
116.186.0	116.191.*	芬蘭
116.192.0	117.*.*	歐洲
118.0.0	119.*.*	比利時
120.0.0	123.*.*	英國
124.0.0	127.*.*	荷蘭
128.0.0	128.31.*	俄羅斯
128.32.0	128.63.*	法國
128.64.0	128.95.*	土耳其
128.96.0	128.159.*	德國
128.160.0	128.191.*	挪威
128.192.0	128.223.*	俄羅斯
128.224.0	128.*.*	英國
129.0.0	129.31.*	丹麥
129.32.0	129.63.*	俄羅斯
129.64.0	129.95.*	英國
129.96.0	129.127.*	俄羅斯
129.128.0	129.159.*	捷克
129.160.0	129.191.*	西班牙
129.192.0	129.223.*	荷蘭
129.224.0	129.*.*	奧地利
130.0.0	130.31.*	烏克蘭
130.32.0	130.63.*	歐洲
130.64.0	130.95.*	保加利亞
130.96.0	130.127.*	卡塔爾
130.128.0	130.159.*	英國
130.160.0	130.191.*	荷蘭
130.192.0	130.223.*	瑞典
130.224.0	130.*.*	芬蘭
131.0.0	131.31.*	俄羅斯
131.32.0	131.63.*	格魯吉亞
131.64.0	131.95.*	埃及
131.96.0	131.127.*	英國
131.128.0	131.159.*	瑞典
131.160.0	131.191.*	英國
131.192.0	131.*.*	德國
132.0.0	132.31.*	丹麥
132.32.0	132.63.*	阿聯酋
132.64.0	132.95.*	俄羅斯
132.96.0	132.127.*	瑞典
132.128.0	132.159.*	比利時
132.160.0	132.223.*	荷蘭
132.224.0	132.*.*	科威特
133.0.0	133.31.*	黑山
133.32.0	133.63.*	荷蘭
133.64.0	133.95.*	英國
133.96.0	133.127.*	德國
133.128.0	133.159.*	馬恩島
133.160.0	133.191.*	烏克蘭
133.192.0	133.223.*	英國
133.224.0	133.*.*	瑞士
134.0.0	134.31.*	匈牙利
134.32.0	134.63.*	西班牙
134.64.0	134.95.*	意大利
134.96.0	134.127.*	瑞典
134.128.0	134.191.*	波蘭
134.192.0	134.223.*	俄羅斯
134.224.0	134.*.*	荷蘭
135.0.0	135.31.*	德國
135.32.0	135.63.*	波蘭
135.64.0	135.159.*	俄羅斯
135.160.0	135.191.*	馬其頓
135.192.0	135.223.*	德國
135.224.0	135.*.*	盧森堡
136.0.0	136.31.*	荷蘭
136.32.0	136.63.*	瑞典
136.64.0	136.95.*	德國
136.96.0	136.127.*	科特迪瓦
136.128.0	136.191.*	意大利
136.192.0	136.223.*	沙特阿拉伯
136.224.0	136.*.*	波蘭
137.0.0	137.31.*	英國
137.32.0	137.63.*	保加利亞
137.64.0	137.95.*	以色列
137.96.0	137.127.*	塞爾維亞
137.128.0	137.159.*	摩納哥
137.160.0	137.191.*	歐洲
137.192.0	137.223.*	德國
137.224.0	137.*.*	俄羅斯
138.0.0	138.31.*	法國
138.32.0	138.63.*	德國
138.64.0	138.95.*	俄羅斯
138.96.0	138.127.*	塞浦路斯
138.128.0	138.159.*	芬蘭
138.160.0	138.191.*	挪威
138.192.0	138.223.*	俄羅斯
138.224.0	138.*.*	葡萄牙
139.0.0	139.31.*	西班牙
139.32.0	139.63.*	約旦
139.64.0	139.95.*	德國
139.96.0	139.127.*	法國
139.128.0	139.159.*	德國
139.160.0	139.191.*	芬蘭
139.192.0	139.*.*	土耳其
140.0.0	140.31.*	意大利
140.32.0	140.63.*	西班牙
140.64.0	140.95.*	丹麥
140.96.0	140.127.*	俄羅斯
140.128.0	140.159.*	希臘
140.160.0	140.191.*	芬蘭
140.192.0	140.223.*	塞浦路斯
140.224.0	140.*.*	俄羅斯
141.0.0	141.31.*	葡萄牙
141.32.0	141.63.*	西班牙
141.64.0	141.95.*	瑞典
141.96.0	141.127.*	芬蘭
141.128.0	141.159.*	俄羅斯
141.160.0	141.191.*	哈薩克斯坦
141.192.0	141.*.*	俄羅斯
142.0.0	142.31.*	瑞典
142.32.0	142.63.*	俄羅斯
142.64.0	142.95.*	挪威
142.96.0	142.127.*	奧地利
142.128.0	142.159.*	土耳其
142.160.0	142.191.*	瑞士
142.192.0	142.223.*	俄羅斯
142.224.0	142.*.*	斯洛文尼亞
143.0.0	143.31.*	英國
143.32.0	143.63.*	西班牙
143.64.0	143.95.*	斯洛文尼亞
143.96.0	143.127.*	奧地利
143.128.0	143.159.*	英國
143.160.0	143.191.*	芬蘭
143.192.0	143.223.*	德國
143.224.0	143.*.*	土耳其
144.0.0	144.31.*	德國
144.32.0	144.63.*	西班牙
144.64.0	144.95.*	意大利
144.96.0	144.127.*	土耳其
144.128.0	144.159.*	瑞士
144.160.0	144.191.*	意大利
144.192.0	144.223.*	法國
144.224.0	144.*.*	荷蘭
145.0.0	145.63.*	俄羅斯
145.64.0	145.95.*	德國
145.96.0	145.127.*	保加利亞
145.128.0	145.159.*	吉爾吉斯斯坦
145.160.0	145.191.*	挪威
145.192.0	145.223.*	芬蘭
145.224.0	145.*.*	奧地利
146.0.0	146.31.*	瑞士
146.32.0	146.63.*	波蘭
146.64.0	146.95.*	瑞典
146.96.0	146.127.*	德國
146.128.0	146.159.*	英國
146.160.0	146.191.*	歐洲
146.192.0	146.223.*	葡萄牙
146.224.0	147.31.*	德國
147.32.0	147.63.*	俄羅斯
147.64.0	147.95.*	肯尼亞
147.96.0	147.127.*	克羅地亞
147.128.0	147.159.*	伊朗
147.160.0	147.191.*	奧地利
147.192.0	147.223.*	俄羅斯
147.224.0	147.*.*	英國
148.0.0	148.31.*	俄羅斯
148.32.0	148.63.*	英國
148.64.0	148.95.*	土耳其
148.96.0	148.159.*	德國
148.160.0	148.191.*	俄羅斯
148.192.0	148.223.*	西班牙
148.224.0	148.*.*	荷蘭
149.0.0	149.31.*	俄羅斯
149.32.0	149.63.*	克羅地亞
149.64.0	149.95.*	德國
149.96.0	149.127.*	黑山
149.128.0	149.159.*	保加利亞
149.160.0	149.177.*	塞浦路斯
149.178.0	149.191.*	歐洲
149.192.0	149.223.*	意大利
149.224.0	149.*.*	西班牙
150.0.0	150.31.*	奧地利
150.32.0	150.63.*	丹麥
150.64.0	150.95.*	俄羅斯
150.96.0	150.127.*	肯尼亞
150.128.0	150.159.*	瑞典
150.160.0	150.191.*	突尼斯
150.192.0	150.223.*	科特迪瓦
150.224.0	150.*.*	奧地利
151.0.0	151.31.*	烏克蘭
151.32.0	151.63.*	以色列
151.64.0	151.95.*	捷克
151.96.0	151.127.*	西班牙
151.128.0	151.159.*	挪威
151.160.0	151.191.*	法國
151.192.0	151.*.*	斯洛伐克
152.0.0	152.31.*	法國
152.32.0	152.63.*	英國
152.64.0	152.95.*	埃及
152.96.0	152.127.*	德國
152.128.0	152.159.*	俄羅斯
152.160.0	152.191.*	荷蘭
152.192.0	152.223.*	意大利
152.224.0	152.*.*	英國
153.0.0	153.31.*	挪威
153.32.0	153.63.*	奧地利
153.64.0	153.95.*	德國
153.96.0	153.127.*	瑞典
153.128.0	153.*.*	土耳其
154.0.0	154.31.*	阿塞拜疆
154.32.0	154.63.*	埃及
154.64.0	154.95.*	塞內加爾
154.96.0	154.159.*	羅馬尼亞
154.160.0	154.191.*	俄羅斯
154.192.0	154.223.*	烏克蘭
154.224.0	154.*.*	荷蘭
155.0.0	155.31.*	烏克蘭
155.32.0	155.63.*	捷克
155.64.0	155.95.*	德國
155.96.0	155.127.*	土耳其
155.128.0	155.159.*	歐洲
155.160.0	155.191.*	波蘭
155.192.0	155.223.*	意大利
155.224.0	155.*.*	捷克
156.0.0	156.31.*	荷蘭
156.32.0	156.63.*	意大利
156.64.0	156.95.*	烏克蘭
156.96.0	156.127.*	波蘭
156.128.0	156.159.*	俄羅斯
156.160.0	156.191.*	德國
156.192.0	156.223.*	俄羅斯
156.224.0	156.*.*	瑞士
157.0.0	157.31.*	德國
157.32.0	157.63.*	哈薩克斯坦
157.64.0	157.95.*	芬蘭
157.96.0	157.127.*	匈牙利
157.128.0	157.159.*	奧地利
157.160.0	157.191.*	羅馬尼亞
157.192.0	157.223.*	格魯吉亞
157.224.0	157.*.*	斯洛文尼亞
158.0.0	158.31.*	俄羅斯
158.32.0	158.63.*	瑞典
158.64.0	158.95.*	意大利
158.96.0	158.127.*	德國
158.128.0	158.159.*	瑞士
158.160.0	158.191.*	埃及
158.192.0	158.223.*	波蘭
158.224.0	158.*.*	挪威
159.0.0	159.31.*	荷蘭
159.32.0	159.63.*	立陶宛
159.64.0	159.127.*	俄羅斯
159.128.0	159.159.*	愛爾蘭
159.160.0	159.191.*	瑞典
159.192.0	159.223.*	俄羅斯
159.224.0	159.*.*	烏克蘭
160.0.0	160.31.*	德國
160.32.0	160.63.*	瑞士
160.64.0	160.95.*	德國
160.96.0	160.127.*	英國
160.128.0	160.159.*	烏克蘭
160.160.0	160.191.*	斯洛伐克
160.192.0	160.*.*	荷蘭
161.0.0	161.31.*	斯洛文尼亞
161.32.0	161.63.*	芬蘭
161.64.0	161.95.*	英國
161.96.0	161.127.*	波蘭
161.128.0	161.159.*	土耳其
161.160.0	161.191.*	挪威
161.192.0	161.223.*	法國
161.224.0	161.*.*	挪威
162.0.0	162.31.*	瑞士
162.32.0	162.63.*	法國
162.64.0	162.95.*	奧地利
162.96.0	162.127.*	英國
162.128.0	162.159.*	德國
162.160.0	162.191.*	荷蘭
162.192.0	162.223.*	西班牙
162.224.0	162.*.*	挪威
163.0.0	163.63.*	匈牙利
163.64.0	163.95.*	荷蘭
163.96.0	163.127.*	塞爾維亞
163.128.0	163.159.*	瑞典
163.160.0	163.191.*	法國
163.192.0	163.223.*	英國
163.224.0	163.*.*	奧地利
164.0.0	164.31.*	英國
164.32.0	164.63.*	西班牙
164.64.0	164.95.*	德國
164.96.0	164.127.*	立陶宛
164.128.0	164.159.*	德國
164.160.0	164.191.*	西班牙
164.192.0	164.223.*	瑞典
164.224.0	164.*.*	羅馬尼亞
165.0.0	165.31.*	英國
165.32.0	165.63.*	黎巴嫩
165.64.0	165.127.*	德國
165.128.0	165.159.*	英國
165.160.0	165.191.*	馬耳他
165.192.0	165.223.*	俄羅斯
165.224.0	166.31.*	英國
166.32.0	166.63.*	盧森堡
166.64.0	166.95.*	英國
166.96.0	166.127.*	歐洲
166.128.0	166.159.*	沙特阿拉伯
166.160.0	166.191.*	挪威
166.192.0	166.223.*	法國
166.224.0	166.*.*	德國
167.0.0	167.31.*	保加利亞
167.32.0	167.63.*	俄羅斯
167.64.0	167.95.*	英國
167.96.0	167.127.*	挪威
167.128.0	167.159.*	冰島
167.160.0	167.191.*	德國
167.192.0	167.223.*	俄羅斯
167.224.0	167.*.*	西班牙
168.0.0	168.31.*	愛沙尼亞
168.32.0	168.63.*	俄羅斯
168.64.0	168.127.*	德國
168.128.0	168.159.*	俄羅斯
168.160.0	168.191.*	捷克
168.192.0	168.223.*	德國
168.224.0	168.*.*	英國
169.0.0	169.31.*	芬蘭
169.32.0	169.63.*	保加利亞
169.64.0	169.95.*	烏克蘭
169.96.0	169.127.*	盧森堡
169.128.0	169.159.*	塞浦路斯
169.160.0	169.191.*	法國
169.192.0	169.*.*	荷蘭
170.0.0	170.31.*	英國
170.32.0	170.63.*	西班牙
170.64.0	170.127.*	俄羅斯
170.128.0	170.159.*	英國
170.160.0	170.191.*	德國
170.192.0	170.223.*	希臘
170.224.0	170.*.*	丹麥
171.0.0	171.63.*	俄羅斯
171.64.0	171.95.*	荷蘭
171.96.0	171.127.*	意大利
171.128.0	171.159.*	荷蘭
171.160.0	171.191.*	意大利
171.192.0	171.223.*	英國
171.224.0	171.*.*	西班牙
172.0.0	172.31.*	俄羅斯
172.32.0	172.63.*	西班牙
172.64.0	172.95.*	阿塞拜疆
172.96.0	172.127.*	德國
172.128.0	172.159.*	加納
172.160.0	172.191.*	波蘭
172.192.0	172.223.*	挪威
172.224.0	172.*.*	斯洛文尼亞
173.0.0	173.31.*	德國
173.32.0	173.63.*	以色列
173.64.0	173.95.*	奧地利
173.96.0	173.127.*	意大利
173.128.0	173.159.*	芬蘭
173.160.0	173.191.*	英國
173.192.0	173.223.*	瑞典
173.224.0	173.*.*	丹麥
174.0.0	174.31.*	烏克蘭
174.32.0	174.63.*	德國
174.64.0	174.95.*	丹麥
174.96.0	174.127.*	法國
174.128.0	174.159.*	烏克蘭
174.160.0	174.191.*	意大利
174.192.0	174.223.*	英國
174.224.0	174.*.*	奧地利
175.0.0	175.31.*	意大利
175.32.0	175.63.*	捷克
175.64.0	175.127.*	拉脫維亞
175.128.0	175.159.*	英國
175.160.0	175.191.*	黎巴嫩
175.192.0	175.*.*	英國
176.0.0	176.127.*	伊朗
176.128.0	176.159.*	冰島
176.160.0	176.191.*	西班牙
176.192.0	176.223.*	法國
176.224.0	176.*.*	俄羅斯
177.0.0	177.31.*	羅馬尼亞
177.32.0	177.63.*	英國
177.64.0	177.95.*	比利時
177.96.0	177.127.*	俄羅斯
177.128.0	177.191.*	比利時
177.192.0	177.223.*	西班牙
177.224.0	177.*.*	英國
178.0.0	178.31.*	德國
178.32.0	178.63.*	俄羅斯
178.64.0	178.95.*	德國
178.96.0	178.127.*	匈牙利
178.128.0	178.159.*	英國
178.160.0	178.191.*	德國
178.192.0	178.223.*	意大利
178.224.0	178.*.*	敘利亞
179.0.0	179.31.*	瑞典
179.32.0	179.63.*	挪威
179.64.0	179.95.*	德國
179.96.0	179.127.*	西班牙
179.128.0	179.159.*	德國
179.160.0	179.191.*	阿爾及利亞
179.192.0	179.223.*	荷蘭
179.224.0	179.*.*	烏克蘭
180.0.0	180.31.*	愛沙尼亞
180.32.0	180.63.*	捷克
180.64.0	180.95.*	瑞典
180.96.0	180.127.*	拉脫維亞
180.128.0	180.159.*	波蘭
180.160.0	180.191.*	瑞士
180.192.0	180.223.*	俄羅斯
180.224.0	180.*.*	法國
181.0.0	181.31.*	俄羅斯
181.32.0	181.63.*	比利時
181.64.0	181.95.*	西班牙
181.96.0	181.127.*	冰島
181.128.0	181.159.*	斯洛伐克
181.160.0	181.191.*	沙特阿拉伯
181.192.0	181.223.*	匈牙利
181.224.0	181.*.*	埃及
182.0.0	182.31.*	德國
182.32.0	182.63.*	法國
182.64.0	182.95.*	意大利
182.96.0	182.159.*	德國
182.160.0	182.191.*	俄羅斯
182.192.0	182.223.*	拉脫維亞
182.224.0	182.*.*	奧地利
183.0.0	183.31.*	德國
183.32.0	183.63.*	俄羅斯
183.64.0	183.95.*	德國
183.96.0	183.127.*	俄羅斯
183.128.0	183.159.*	意大利
183.160.0	183.223.*	德國
183.224.0	183.*.*	俄羅斯
184.0.0	184.31.*	波蘭
184.32.0	184.63.*	愛沙尼亞
184.64.0	184.95.*	俄羅斯
184.96.0	184.127.*	塞爾維亞
184.128.0	184.159.*	俄羅斯
184.160.0	184.191.*	沙特阿拉伯
184.192.0	184.223.*	挪威
184.224.0	184.*.*	白俄羅斯
185.0.0	185.31.*	瑞典
185.32.0	185.63.*	芬蘭
185.64.0	185.95.*	德國
185.96.0	185.127.*	英國
185.128.0	185.159.*	德國
185.160.0	185.191.*	英國
185.192.0	185.223.*	歐洲
185.224.0	185.*.*	瑞典
186.0.0	186.31.*	克羅地亞
186.32.0	186.63.*	法國
186.64.0	186.95.*	波蘭
186.96.0	186.127.*	烏克蘭
186.128.0	186.159.*	土耳其
186.160.0	186.191.*	約旦
186.192.0	186.223.*	烏克蘭
186.224.0	186.*.*	芬蘭
187.0.0	187.31.*	意大利
187.32.0	187.63.*	英國
187.64.0	187.95.*	德國
187.96.0	187.127.*	俄羅斯
187.128.0	187.159.*	荷蘭
187.160.0	187.191.*	挪威
187.192.0	187.223.*	瑞典
187.224.0	187.*.*	德國
188.0.0	188.31.*	挪威
188.32.0	188.63.*	瑞士
188.64.0	188.95.*	約旦
188.96.0	188.127.*	德國
188.128.0	188.159.*	挪威
188.160.0	188.191.*	法國
188.192.0	188.223.*	意大利
188.224.0	188.*.*	瑞士
189.0.0	189.31.*	荷蘭
189.32.0	189.63.*	波蘭
189.64.0	189.95.*	科威特
189.96.0	189.127.*	瑞典
189.128.0	189.159.*	瑞士
189.160.0	189.191.*	比利時
189.192.0	189.*.*	俄羅斯
190.0.0	190.31.*	西班牙
190.32.0	190.63.*	立陶宛
190.64.0	190.95.*	法國
190.96.0	190.127.*	冰島
190.128.0	190.159.*	愛爾蘭
190.160.0	190.191.*	英國
190.192.0	190.223.*	葡萄牙
190.224.0	191.31.*	俄羅斯
191.32.0	191.95.*	德國
191.96.0	191.127.*	捷克
191.128.0	191.159.*	克羅地亞
191.160.0	191.191.*	愛爾蘭
191.192.0	191.223.*	保加利亞
191.224.0	191.*.*	愛爾蘭
192.0.0	192.63.*	捷克
192.64.0	192.127.*	波蘭
192.128.0	192.191.*	芬蘭
192.192.0	192.*.*	西班牙
193.0.0	193.31.*	俄羅斯
193.32.0	193.63.*	南非
193.64.0	193.127.*	瑞士
193.128.0	193.191.*	比利時
193.192.0	193.*.*	荷蘭
194.0.0	194.63.*	西班牙
194.64.0	194.127.*	土耳其
194.128.0	194.191.*	西班牙
194.192.0	194.*.*	捷克
195.0.0	195.63.*	伊朗
195.64.0	195.127.*	西班牙
195.128.0	195.191.*	波蘭
195.192.0	195.*.*	捷克
196.0.0	196.63.*	荷蘭
196.64.0	196.127.*	波黑
196.128.0	196.191.*	瑞士
196.192.0	196.*.*	德國
197.0.0	197.63.*	荷蘭
197.64.0	197.127.*	匈牙利
197.128.0	197.191.*	立陶宛
197.192.0	197.*.*	荷蘭
198.0.0	198.127.*	歐洲
198.128.0	198.191.*	意大利
198.192.0	198.*.*	塞爾維亞
199.0.0	199.31.*	意大利
199.32.0	199.63.*	英國
199.64.0	199.127.*	瑞典
199.128.0	199.191.*	英國
199.192.0	199.*.*	波蘭
200.0.0	200.31.*	格魯吉亞
200.32.0	200.63.*	烏克蘭
200.64.0	200.127.*	歐洲
200.128.0	200.191.*	瑞典
200.192.0	200.*.*	瑞士
201.0.0	201.127.*	西班牙
201.128.0	201.*.*	荷蘭
202.0.0	202.31.*	俄羅斯
202.32.0	202.63.*	瑞士
202.64.0	202.127.*	克羅地亞
202.128.0	202.191.*	愛爾蘭
202.192.0	202.*.*	德國
203.0.0	203.63.*	挪威
203.64.0	203.127.*	法國
203.128.0	203.191.*	意大利
203.192.0	203.*.*	德國
204.0.0	204.31.*	意大利
204.32.0	204.63.*	芬蘭
204.64.0	204.127.*	黎巴嫩
204.128.0	204.191.*	瑞典
204.192.0	204.*.*	荷蘭
205.0.0	205.63.*	意大利
205.64.0	205.95.*	葡萄牙
205.96.0	205.127.*	法國
205.128.0	206.31.*	英國
206.32.0	206.63.*	烏茲別克斯坦
206.64.0	206.127.*	荷蘭
206.128.0	206.159.*	英國
206.160.0	206.191.*	德國
206.192.0	207.31.*	荷蘭
207.32.0	207.63.*	阿爾巴尼亞
207.64.0	207.127.*	荷蘭
207.128.0	207.191.*	塞浦路斯
207.192.0	207.*.*	伊朗
208.0.0	208.31.*	奧地利
208.32.0	208.63.*	德國
208.64.0	208.127.*	英國
208.128.0	208.159.*	奧地利
208.160.0	208.191.*	俄羅斯
208.192.0	208.*.*	英國
209.0.0	209.63.*	意大利
209.64.0	209.159.*	德國
209.160.0	209.*.*	意大利
210.0.0	210.63.*	英國
210.64.0	210.127.*	俄羅斯
210.128.0	210.191.*	捷克
210.192.0	210.*.*	沙特阿拉伯
211.0.0	211.31.*	土耳其
211.32.0	211.63.*	捷克
211.64.0	211.127.*	哈薩克斯坦
211.128.0	211.191.*	比利時
211.192.0	211.*.*	德國
212.0.0	212.63.*	瑞典
212.64.0	212.127.*	英國
212.128.0	212.191.*	意大利
212.192.0	212.*.*	埃及
213.0.0	213.127.*	意大利
213.128.0	213.159.*	冰島
213.160.0	213.191.*	瑞士
213.192.0	213.*.*	比利時
214.0.0	214.31.*	德國
214.32.0	214.63.*	比利時
214.64.0	214.95.*	保加利亞
214.96.0	214.127.*	荷蘭
214.128.0	214.191.*	芬蘭
214.192.0	214.*.*	瑞典
215.0.0	215.63.*	法國
215.64.0	215.127.*	斯洛伐克
215.128.0	215.*.*	英國
216.0.0	216.31.*	德國
216.32.0	216.63.*	捷克
216.64.0	216.127.*	波蘭
216.128.0	216.130.*	瑞士
216.131.0	216.132.31	英國
216.132.32	216.132.63	瑞士
216.132.64	216.132.95	英國
216.132.96	216.132.*	瑞士
216.133.0	216.133.63	英國
216.133.64	216.138.127	瑞士
216.138.128	216.140.127	英國
216.140.128	216.140.*	瑞士
216.141.0	216.141.31	英國
216.141.32	216.141.*	瑞士
216.142.0	216.142.127	英國
216.142.128	216.142.128	瑞士
216.142.129	216.145.31	英國
216.145.32	216.146.15	瑞士
216.146.16	216.146.55	英國
216.146.56	216.146.63	瑞士
216.146.64	216.146.95	英國
216.146.96	216.146.*	瑞士
216.147.0	216.147.63	英國
216.147.64	216.191.*	瑞士
216.192.0	216.*.*	芬蘭
217.0.0	217.31.*	德國
217.32.0	217.63.*	伊朗
217.64.0	217.127.*	德國
217.128.0	217.191.*	意大利
217.192.0	217.*.*	馬耳他
218.0.0	218.31.*	德國
218.32.0	218.63.*	意大利
218.64.0	218.127.*	波蘭
218.128.0	218.159.*	法國
218.160.0	218.191.*	德國
218.192.0	219.63.*	英國
219.64.0	219.127.*	愛沙尼亞
219.128.0	219.191.*	比利時
219.192.0	219.*.*	俄羅斯
220.0.0	220.63.*	西班牙
220.64.0	220.127.*	冰島
220.128.0	220.191.*	德國
220.192.0	220.*.*	捷克
221.0.0	221.63.*	俄羅斯
221.64.0	221.127.*	德國
221.128.0	221.159.*	瑞士
221.160.0	221.191.*	英國
221.192.0	221.*.*	瑞士
222.0.0	222.31.*	荷蘭
222.32.0	222.63.*	保加利亞
222.64.0	222.127.*	法國
222.128.0	222.191.*	匈牙利
222.192.0	222.223.*	波蘭
222.224.0	222.*.*	俄羅斯
223.0.0	223.*.*	法國
224.0.0	224.*.*	比利時
225.0.0	225.63.*	奧地利
225.64.0	225.127.*	挪威
225.128.0	225.159.*	英國
225.160.0	225.191.*	法國
225.192.0	225.*.*	意大利
226.0.0	226.63.*	保加利亞
226.64.0	226.127.*	瑞典
226.128.0	226.191.*	立陶宛
226.192.0	226.*.*	捷克
227.0.0	227.63.*	西班牙
227.64.0	227.127.*	波蘭
227.128.0	227.159.*	荷蘭
227.160.0	227.191.*	奧地利
227.192.0	227.*.*	烏克蘭
228.0.0	228.63.*	法國
228.64.0	228.127.*	俄羅斯
228.128.0	228.191.*	葡萄牙
228.192.0	228.*.*	英國
229.0.0	229.63.*	奧地利
229.64.0	229.191.*	英國
229.192.0	229.*.*	斯洛文尼亞
230.0.0	230.31.*	沙特阿拉伯
230.32.0	230.63.*	瑞士
230.64.0	230.127.*	烏茲別克斯坦
230.128.0	230.159.*	意大利
230.160.0	230.191.*	挪威
230.192.0	230.*.*	英國
231.0.0	231.63.*	烏克蘭
231.64.0	231.127.*	西班牙
231.128.0	231.191.*	保加利亞
231.192.0	231.*.*	波蘭
232.0.0	232.63.*	土耳其
232.64.0	232.127.*	英國
232.128.0	232.191.*	瑞士
232.192.0	232.*.*	俄羅斯
233.0.0	233.63.*	意大利
233.64.0	233.127.*	羅馬尼亞
233.128.0	233.159.*	愛爾蘭
233.160.0	233.191.*	伊朗
233.192.0	233.*.*	荷蘭
234.0.0	234.31.*	俄羅斯
234.32.0	234.63.*	英國
234.64.0	234.127.*	挪威
234.128.0	234.191.*	意大利
234.192.0	234.*.*	俄羅斯
235.0.0	235.63.*	英國
235.64.0	235.191.*	捷克
235.192.0	235.*.*	奧地利
236.0.0	236.31.*	西班牙
236.32.0	236.63.*	沙特阿拉伯
236.64.0	236.127.*	西班牙
236.128.0	236.*.*	挪威
237.0.0	237.191.*	丹麥
237.192.0	237.*.*	英國
238.0.0	238.31.*	烏克蘭
238.32.0	238.63.*	德國
238.64.0	238.127.*	波蘭
238.128.0	238.191.*	土耳其
238.192.0	238.*.*	瑞典
239.0.0	239.8.*	瑞士
239.9.0	239.9.*	荷蘭
239.10.0	239.10.15	英國
239.10.16	239.10.31	法國
239.10.32	239.10.127	英國
239.10.128	239.10.*	瑞典
239.11.0	239.11.143	英國
239.11.144	239.11.*	瑞士
239.12.0	239.20.191	英國
239.20.192	239.21.*	瑞士
239.22.0	239.22.63	西班牙
239.22.64	239.22.127	丹麥
239.22.128	239.22.191	挪威
239.22.192	239.22.*	英國
239.23.0	239.23.*	德國
239.24.0	239.28.127	英國
239.28.128	239.28.191	德國
239.28.192	239.29.*	英國
239.30.0	239.30.*	瑞士
239.31.0	239.31.31	英國
239.31.32	239.31.63	瑞士
239.31.64	239.31.*	美國
239.32.0	239.40.191	英國
239.40.192	239.40.*	瑞士
239.41.0	239.43.16	英國
239.43.17	239.43.31	瑞士
239.43.32	239.43.63	德國
239.43.64	239.43.127	瑞典
239.43.128	239.43.191	瑞士
239.43.192	239.43.207	意大利
239.43.208	239.43.223	德國
239.43.224	239.43.239	英國
239.43.240	239.43.*	美國
239.44.0	239.52.191	英國
239.52.192	239.52.*	瑞士
239.53.0	239.53.*	英國
239.54.0	239.55.*	荷蘭
239.56.0	239.61.79	英國
239.61.80	239.61.95	意大利
239.61.96	239.61.103	瑞士
239.61.104	239.61.111	美國
239.61.112	239.61.*	瑞典
239.62.0	239.62.127	瑞士
239.62.128	239.62.*	英國
239.63.0	239.63.*	瑞士
239.64.0	239.127.*	挪威
239.128.0	239.191.*	荷蘭
239.192.0	239.*.*	德國
240.0.0	240.63.*	塞爾維亞
240.64.0	240.127.*	奧地利
240.128.0	240.191.*	德國
240.192.0	240.*.*	保加利亞
241.0.0	241.127.*	波蘭
241.128.0	241.191.*	德國
241.192.0	242.63.*	俄羅斯
242.64.0	242.127.*	英國
242.128.0	242.191.*	瑞典
242.192.0	242.*.*	俄羅斯
243.0.0	243.63.*	土耳其
243.64.0	243.127.*	俄羅斯
243.128.0	243.191.*	芬蘭
243.192.0	243.*.*	意大利
244.0.0	244.31.*	法國
244.32.0	244.63.*	德國
244.64.0	244.127.*	巴勒斯坦
244.128.0	244.191.*	英國
244.192.0	244.*.*	塞爾維亞
245.0.0	245.*.*	法國
246.0.0	246.31.*	俄羅斯
246.32.0	246.63.*	法國
246.64.0	246.*.*	英國
247.0.0	247.31.*	埃及
247.32.0	247.127.*	荷蘭
247.128.0	248.63.*	俄羅斯
248.64.0	248.127.*	歐洲
248.128.0	248.191.*	土耳其
248.192.0	248.*.*	英國
249.0.0	249.63.*	希臘
249.64.0	249.95.*	荷蘭
249.96.0	249.*.*	英國
250.0.0	250.63.*	斯洛文尼亞
250.64.0	250.127.*	芬蘭
250.128.0	250.191.*	西班牙
250.192.0	250.*.*	捷克
251.0.0	251.63.*	英國
251.64.0	251.127.*	比利時
251.128.0	251.191.*	法國
251.192.0	251.*.*	俄羅斯
252.0.0	252.63.*	德國
252.64.0	252.127.*	俄羅斯
252.128.0	252.191.*	德國
252.192.0	252.*.*	立陶宛
253.0.0	253.63.*	英國
253.64.0	253.127.*	斯洛文尼亞
253.128.0	253.191.*	英國
253.192.0	253.*.*	匈牙利
254.0.0	254.31.*	意大利
254.32.0	254.63.*	德國
254.64.0	254.127.*	西班牙
254.128.0	254.159.*	土耳其
254.160.0	254.191.*	英國
254.192.0	254.*.*	歐洲
*.0.0	*.127.*	意大利
*.128.0	*.159.*	埃及
*.160.0	*.191.*	芬蘭
*.192.0	*.*.*	英國
